{
    "_embedded": {
        "commitResourceList": [
            {
                "name": "9960ff7463e00ad301bffab2f98176323c753599",
                "parentCommitName": "839d50303128b2b7d6da25ef0821e8b950e03edd",
                "author": "Tom Hombergs",
                "timestamp": 1476911442000,
                "analyzed": true,
                "_links": {
                    "project": {
                        "href": "http://localhost:8080/projects/1"
                    }
                }
            },
            {
                "name": "839d50303128b2b7d6da25ef0821e8b950e03edd",
                "parentCommitName": "6c2633e8753f399eb6cded1c78926933bbceb9cb",
                "author": "Tom Hombergs",
                "timestamp": 1476906291000,
                "analyzed": true,
                "_links": {
                    "project": {
                        "href": "http://localhost:8080/projects/1"
                    }
                }
            },
            {
                "name": "6c2633e8753f399eb6cded1c78926933bbceb9cb",
                "parentCommitName": "b4a99e3e012d2400516fd7e67645192bdde29330",
                "author": "Tom Hombergs",
                "timestamp": 1476827019000,
                "analyzed": true,
                "_links": {
                    "project": {
                        "href": "http://localhost:8080/projects/1"
                    }
                }
            },
            {
                "name": "b4a99e3e012d2400516fd7e67645192bdde29330",
                "parentCommitName": "dbb6a20ab59f0aab79bc7c75bd9aea539c3931e8",
                "author": "Tom Hombergs",
                "timestamp": 1476825448000,
                "analyzed": false,
                "_links": {
                    "project": {
                        "href": "http://localhost:8080/projects/1"
                    }
                }
            },
            {
                "name": "dbb6a20ab59f0aab79bc7c75bd9aea539c3931e8",
                "parentCommitName": "f782bf5bbe3bd9cbfa4342924103dd4c9d93f5ad",
                "author": "Tom Hombergs",
                "timestamp": 1476818457000,
                "analyzed": true,
                "_links": {
                    "project": {
                        "href": "http://localhost:8080/projects/1"
                    }
                }
            },
            {
                "name": "f782bf5bbe3bd9cbfa4342924103dd4c9d93f5ad",
                "parentCommitName": "36de9025aac5cf702c987548f570777419772a46",
                "author": "Tom Hombergs",
                "timestamp": 1476818073000,
                "analyzed": true,
                "_links": {
                    "project": {
                        "href": "http://localhost:8080/projects/1"
                    }
                }
            },
            {
                "name": "36de9025aac5cf702c987548f570777419772a46",
                "parentCommitName": "848e78f5f7baf497095036b39fb9bfea6fa708b7",
                "author": "Tom Hombergs",
                "timestamp": 1476739339000,
                "analyzed": true,
                "_links": {
                    "project": {
                        "href": "http://localhost:8080/projects/1"
                    }
                }
            },
            {
                "name": "848e78f5f7baf497095036b39fb9bfea6fa708b7",
                "parentCommitName": "94e4d2c44399c270d2bd5c9dfeb44a53149327bc",
                "author": "Tom Hombergs",
                "timestamp": 1476737254000,
                "analyzed": true,
                "_links": {
                    "project": {
                        "href": "http://localhost:8080/projects/1"
                    }
                }
            },
            {
                "name": "94e4d2c44399c270d2bd5c9dfeb44a53149327bc",
                "parentCommitName": "be1f29b56b05e438d71606f470515a29b882ac48",
                "author": "Tom Hombergs",
                "timestamp": 1476649284000,
                "analyzed": true,
                "_links": {
                    "project": {
                        "href": "http://localhost:8080/projects/1"
                    }
                }
            },
            {
                "name": "be1f29b56b05e438d71606f470515a29b882ac48",
                "parentCommitName": "2c3eb3081265d4ff5f737b493594ecbb4a67a8f8",
                "author": "Tom Hombergs",
                "timestamp": 1476647775000,
                "analyzed": true,
                "_links": {
                    "project": {
                        "href": "http://localhost:8080/projects/1"
                    }
                }
            }
        ]
    },
    "_links": {
        "first": {
            "href": "http://localhost:8080/projects/1/commits?page=0&size=10"
        },
        "self": {
            "href": "http://localhost:8080/projects/1/commits?page=0&size=10"
        },
        "next": {
            "href": "http://localhost:8080/projects/1/commits?page=1&size=10"
        },
        "last": {
            "href": "http://localhost:8080/projects/1/commits?page=21&size=10"
        }
    },
    "page": {
        "size": 10,
        "totalElements": 215,
        "totalPages": 22,
        "number": 0
    }
}